L04 Paneldata
…
Adding arrange() means sorting the data by a variable (i.e. the n) either ascending or descending (from high to low).

soep %>% group_by(id) %>% count() %>% arrange(desc(n)) 

 See result. 

## # A tibble: 3,550 x 2
## # Groups:   id [3,550]
##       id     n
##    <dbl> <int>
##  1  1044     5
##  2  1300     5
##  3  1343     5
##  4  1889     5
##  5  2160     5
##  6  2241     5
##  7  3240     5
##  8  3535     5
##  9  3787     5
## 10  4107     5
## # ... with 3,540 more rows
…
Remember that the observation period is between 2000 and 2004, i.e. min is 1 year, max is 5 years.

## 
## 2000 2001 2002 2003 2004 
## 3198 2690 2485 2299 2250

Attrition is the process of dropout from a panel study.

How many people are observed in all years? Filter for a specific n and check the tibble size again.

soep %>% group_by(id) %>% count() %>% filter(n == 5) 

 See result. 

## # A tibble: 1,851 x 2
## # Groups:   id [1,851]
##       id     n
##    <dbl> <int>
##  1  1044     5
##  2  1300     5
##  3  1343     5
##  4  1889     5
##  5  2160     5
##  6  2241     5
##  7  3240     5
##  8  3535     5
##  9  3787     5
## 10  4107     5
## # ... with 1,841 more rows
…
