R04 Understand and Plot Paneldata
…
library(haven)
temp <- tempfile()
download.file("https://www.diw.de/documents/dokumentenarchiv/17/diw_01.c.412698.de/soep_lebensz_en.zip",temp)
soep <- read_dta(unz(temp, "soep_lebensz_en.dta"))
unlink(temp)

group_by is a powerful command, especially when working with paneldata. Use count after group_by to get the number of observations of each person (id) in the data:

library(tidyverse)
soep %>% group_by(id) %>% count() 

See result.

## # A tibble: 3,550 x 2
## # Groups:   id [3,550]
##       id     n
##    <dbl> <int>
##  1   312     1
##  2   399     2
##  3   457     3
##  4   748     1
##  5   761     2
##  6  1044     5
##  7  1300     5
##  8  1343     5
##  9  1423     4
## 10  1596     4
## # ... with 3,540 more rows

Adding arrange means sorting the data by a variable (i.e. the n) either ascending or descending (from high to low). Remember that the observation period is between 2000 and 2004, i.e. min is 1 year, max is 5 years.

soep %>% group_by(id) %>% count() %>% arrange(desc(n)) 
table(soep$year)

See result.

## # A tibble: 3,550 x 2
## # Groups:   id [3,550]
##       id     n
##    <dbl> <int>
##  1  1044     5
##  2  1300     5
##  3  1343     5
##  4  1889     5
##  5  2160     5
##  6  2241     5
##  7  3240     5
##  8  3535     5
##  9  3787     5
## 10  4107     5
## # ... with 3,540 more rows

## 
## 2000 2001 2002 2003 2004 
## 3198 2690 2485 2299 2250

Note that the output further tells you # A tibble: 3,550 x 2, i.e. there are 3550 ID-groups (or units or people). Next, how many people are observed in all years? Filter for a specific n and check the tibble size again.

soep %>% group_by(id) %>% count() %>% filter(n == 5) 

See result.

## # A tibble: 1,851 x 2
## # Groups:   id [1,851]
##       id     n
##    <dbl> <int>
##  1  1044     5
##  2  1300     5
##  3  1343     5
##  4  1889     5
##  5  2160     5
##  6  2241     5
##  7  3240     5
##  8  3535     5
##  9  3787     5
## 10  4107     5
## # ... with 1,841 more rows
…
